{
    "data": {
        "items": [
            {
                "id": 1,
                "parent_id": null,
                "type": {
                    "id": 1,
                    "name": "Rooms"
                },
                "airport": {
                    "id": 1,
                    "name": "Domodedovo International Airport"
                },
                "terminal": {
                    "id": 1,
                    "name": "DME Domestic"
                },
                "slug": null,
                "image": "/path/to/image.jpg",
                "count": 1,
                "duration": 24,
                "price": 100,
                "currency": "USD",
                "created_at": "2022-10-20T11:20:17.000000Z",
                "updated_at": "2022-10-20T11:20:17.000000Z",
                "name": "Lorem ipsum dolor sit amet",
                "description": "Lorem ipsum dolor sit amet, consectetur adipiscing elit, sed do eiusmod tempor incididunt ut labore et dolore magna aliqua"
            },
            {
                "id": 2,
                "parent_id": null,
                "type": {
                    "id": 1,
                    "name": "Rooms"
                },
                "airport": {
                    "id": 1,
                    "name": "Domodedovo International Airport"
                },
                "terminal": {
                    "id": 1,
                    "name": "DME Domestic"
                },
                "slug": null,
                "image": "/path/to/image.jpg",
                "count": 1,
                "duration": 24,
                "price": 100,
                "currency": "USD",
                "created_at": "2022-10-20T11:20:17.000000Z",
                "updated_at": "2022-10-20T11:20:17.000000Z",
                "name": "Lorem ipsum dolor sit amet",
                "description": "Lorem ipsum dolor sit amet, consectetur adipiscing elit, sed do eiusmod tempor incididunt ut labore et dolore magna aliqua"
            }
        ],
        "total": 10,
        "page": 1,
        "per_page": 2,
        "last_page": 5
    }
}
